{
  "name": "mac_notification",
  "version": "1.0.0",
  "description": "Real time notification system using Socket.io and ExpressJS",
  "main": "./Server/",
  "scripts": {
    "start": "node ./Server/"
  },
  "author": "Erick Chrysostom",
  "license": "ISC",
  "dependencies": {
    "express": "*",
    "redis": "*",
    "socket.io": "*"
  },
  "devDependencies": {
    "grunt": "*",
    "grunt-contrib-jshint": "*",
    "grunt-nodemon": "*"
  }
}